"listeenvois_id","user_id","bool"
2,10276,True
2,10278,True
2,10279,True
2,10284,True
2,10285,True
2,10287,True
2,10385,True
2,10386,True
2,10387,True
2,10388,True
2,10389,True
2,10390,True
2,10391,True
2,10393,True
2,10394,True
2,10395,True
2,10396,True
2,10397,True
2,10398,True
2,10399,True
2,10400,True
2,10401,True
2,10402,True
2,10403,True
2,10404,True
2,10405,True
2,10406,True
2,10407,True
2,10408,True
2,10409,True
2,10410,True
2,10411,True
2,10412,True
2,10413,True
2,10414,True
2,10415,True
2,10416,True
2,10417,True
2,10418,True
2,10419,True
2,10420,True
2,10421,True
2,10422,True
2,10423,True
2,10424,True
2,10425,True
2,10426,True
2,10427,True
2,10428,True
2,10429,True
2,10430,True
2,10431,True
2,10433,True
2,10434,True
2,10435,True
2,10436,True
2,10437,True
2,10438,True
2,10439,True
2,10440,True
2,10441,True
2,10442,True
2,10443,True
2,10444,True
2,10445,True
2,10446,True
2,10447,True
2,10448,True
2,10449,True
2,10450,True
2,10451,True
2,10452,True
2,10453,True
2,10454,True
2,10455,True
2,10456,True
2,10457,True
2,10458,True
2,10459,True
2,10460,True
2,10461,True
2,10462,True
2,10463,True
2,10464,True
2,10465,True
2,10466,True
2,10467,True
2,10468,True
2,10469,True
2,10470,True
2,10471,True
2,10472,True
2,10473,True
2,10474,True
2,10475,True
2,10476,True
2,10477,True
2,10478,True
2,10479,True
2,10480,True
2,10481,True
2,10482,True
2,10483,True
2,10484,True
2,10485,True
2,10486,True
2,10488,True
2,10489,True
2,10490,True
2,10491,True
2,10492,True
2,10493,True
2,10494,True
2,10495,True
2,10496,True
2,10497,True
2,10498,True
2,10499,True
2,10500,True
2,10501,True
2,10502,True
2,10503,True
2,10504,True
2,10505,True
2,10507,True
2,10508,True
2,10509,True
2,10510,True
2,10511,True
2,10512,True
2,10513,True
2,10514,True
2,10515,True
2,10516,True
2,10517,True
2,10518,True
2,10519,True
2,10521,True
2,10522,True
2,10523,True
2,10524,True
2,10525,True
2,10526,True
2,10529,True
2,10530,True
2,10531,True
2,10532,True
2,10534,True
2,10535,True
2,10536,True
2,10537,True
2,10538,True
2,10539,True
2,10540,True
2,10541,True
2,10542,True
2,10544,True
2,10545,True
2,10546,True
2,10547,True
2,10548,True
2,10549,True
2,10550,True
2,10551,True
2,10552,True
2,10553,True
2,10554,True
2,10555,True
2,10556,True
2,10557,True
2,10558,True
2,10559,True
2,10560,True
2,10561,True
2,10562,True
2,10563,True
2,10564,True
2,10565,True
2,10566,True
2,10567,True
2,10568,True
2,10569,True
2,10570,True
2,10571,True
2,10572,True
2,10573,True
2,10574,True
2,10575,True
2,10576,True
2,10577,True
2,10578,True
2,10579,True
2,10580,True
2,10582,True
2,10583,True
2,10584,True
2,10585,True
2,10586,True
2,10588,True
2,10589,True
2,10590,True
2,10591,True
2,10593,True
2,10594,True
2,10595,True
2,10596,True
2,10597,True
2,10598,True
2,10599,True
2,10601,True
2,10602,True
2,10603,True
2,10604,True
2,10605,True
2,10606,True
2,10607,True
2,10608,True
2,10610,True
2,10611,True
2,10612,True
2,10613,True
2,10614,True
2,10615,True
2,10616,True
2,10617,True
2,10618,True
2,10619,True
2,10621,True
2,10622,True
2,10623,True
2,10624,True
2,10625,True
2,10626,True
2,10627,True
2,10628,True
2,10629,True
2,10630,True
2,10631,True
2,10633,True
2,10634,True
2,10635,True
2,10636,True
2,10637,True
2,10638,True
2,10639,True
2,10640,True
2,10641,True
2,10642,True
2,10643,True
2,10644,True
2,10645,True
2,10646,True
2,10647,True
2,10648,True
2,10649,True
2,10650,True
2,10651,True
2,10652,True
2,10653,True
2,10654,True
2,10656,True
2,10657,True
2,10658,True
2,10659,True
2,10661,True
2,10663,True
2,10664,True
2,10665,True
2,10667,True
2,10668,True
2,10669,True
2,10670,True
2,10672,True
2,10673,True
2,10674,True
2,10675,True
2,10676,True
2,10677,True
2,10678,True
2,10679,True
2,10680,True
2,10681,True
2,10682,True
2,10683,True
2,10684,True
2,10685,True
2,10686,True
2,10687,True
2,10688,True
2,10689,True
2,10690,True
2,10691,True
2,10692,True
2,10693,True
2,10694,True
2,10695,True
2,10696,True
2,10697,True
2,10698,True
2,10699,True
2,10700,True
2,10701,True
2,10702,True
2,10703,True
2,10704,True
2,10705,True
2,10706,True
2,10707,True
2,10708,True
2,10709,True
2,10710,True
2,10711,True
2,10712,True
2,10713,True
2,10714,True
2,10715,True
2,10716,True
2,10717,True
2,10718,True
2,10719,True
2,10720,True
2,10721,True
2,10722,True
2,10723,True
2,10724,True
2,10725,True
2,10726,True
2,10727,True
2,10728,True
2,10729,True
2,10730,True
2,10731,True
2,10732,True
2,10733,True
2,10734,True
2,10735,True
2,10737,True
2,10739,True
2,10740,True
2,10742,True
2,10743,True
2,10744,True
2,10745,True
2,10746,True
2,10747,True
2,10749,True
2,10750,True
2,10751,True
2,10754,True
2,10755,True
2,10756,True
2,10757,True
2,10758,True
2,10759,True
2,10761,True
2,10762,True
2,10763,True
2,10764,True
2,10765,True
2,10766,True
2,10767,True
2,10768,True
2,10769,True
2,10770,True
2,10771,True
2,10772,True
2,10773,True
2,10774,True
2,10775,True
2,10776,True
2,10777,True
2,10778,True
2,10779,True
2,10780,True
2,10781,True
2,10782,True
2,10783,True
2,10784,True
2,10785,True
2,10786,True
2,10787,True
2,10788,True
2,10789,True
2,10790,True
2,10791,True
2,10792,True
2,10793,True
2,10794,True
2,10795,True
2,10796,True
2,10797,True
2,10798,True
2,10799,True
2,10800,True
2,10801,True
2,10802,True
2,10803,True
2,10804,True
2,10805,True
2,10806,True
2,10807,True
2,10808,True
2,10809,True
2,10810,True
2,10811,True
2,10812,True
2,10813,True
2,10814,True
2,10816,True
2,10817,True
2,10818,True
2,10819,True
2,10820,True
2,10821,True
2,10822,True
2,10823,True
2,10825,True
2,10826,True
2,10827,True
2,10828,True
2,10829,True
2,10830,True
2,10831,True
2,10832,True
2,10833,True
2,10834,True
2,10835,True
2,10836,True
2,10837,True
2,10838,True
2,10839,True
2,10840,True
2,10841,True
2,10843,True
2,10844,True
2,10845,True
2,10846,True
2,10847,True
2,10848,True
2,10849,True
2,10850,True
2,10851,True
2,10852,True
2,10853,True
2,10854,True
2,10855,True
2,10856,True
2,10857,True
2,10858,True
2,10859,True
2,10861,True
2,10862,True
2,10863,True
2,10864,True
2,10865,True
2,10867,True
2,10868,True
2,10869,True
2,10870,True
2,10871,True
2,10872,True
2,10873,True
2,10875,True
2,10876,True
2,10877,True
2,10878,True
2,10879,True
2,10880,True
2,10881,True
2,10882,True
2,10883,True
2,10884,True
2,10885,True
2,10886,True
2,10887,True
2,10888,True
2,10889,True
2,10890,True
2,10891,True
2,10892,True
2,10893,True
2,10894,True
2,10895,True
2,10896,True
2,10897,True
2,10899,True
2,10901,True
2,10902,True
2,10903,True
2,10904,True
2,10905,True
2,10906,True
2,10907,True
2,10908,True
2,10909,True
2,10910,True
2,10911,True
2,10912,True
2,10913,True
2,10914,True
2,10915,True
2,10916,True
2,10917,True
2,10918,True
2,10919,True
2,10920,True
2,10921,True
2,10922,True
2,10923,True
2,10924,True
2,10925,True
2,10926,True
2,10928,True
2,10930,True
2,10932,True
2,10933,True
2,10934,True
2,10935,True
2,10936,True
2,10937,True
2,10938,True
2,10939,True
2,10940,True
2,10941,True
2,10942,True
2,10943,True
2,10944,True
2,10945,True
2,10946,True
2,10947,True
2,10948,True
2,10949,True
2,10950,True
2,10951,True
2,10952,True
2,10953,True
2,10954,True
2,10955,True
2,10956,True
2,10957,True
2,10958,True
2,10959,True
2,10960,True
2,10961,True
2,10962,True
2,10963,True
2,10964,True
2,10965,True
2,10966,True
2,10967,True
2,10968,True
2,10969,True
2,10970,True
2,10971,True
2,10972,True
2,10973,True
2,10974,True
2,10975,True
2,10976,True
2,10977,True
2,10978,True
2,10979,True
2,10980,True
2,10981,True
2,10982,True
2,10983,True
2,10985,True
2,10986,True
2,10987,True
2,10988,True
2,10989,True
2,10990,True
2,10992,True
2,10993,True
2,10994,True
2,10995,True
2,10996,True
2,10997,True
2,10998,True
2,10999,True
2,11000,True
2,11001,True
2,11002,True
2,11004,True
2,11005,True
2,11006,True
2,11007,True
2,11008,True
2,11009,True
2,11010,True
2,11011,True
2,11012,True
2,11013,True
2,11014,True
2,11015,True
2,11016,True
2,11017,True
2,11019,True
2,11020,True
2,11021,True
2,11022,True
2,11023,True
2,11024,True
2,11025,True
2,11026,True
2,11027,True
2,11028,True
2,11029,True
2,11031,True
2,11032,True
2,11033,True
2,11034,True
2,11035,True
2,11036,True
2,11037,True
2,11038,True
2,11039,True
2,11041,True
2,11042,True
2,11043,True
2,11044,True
2,11046,True
2,11047,True
2,11048,True
2,11049,True
2,11050,True
2,11051,True
2,11052,True
2,11053,True
2,11055,True
2,11056,True
2,11057,True
2,11058,True
2,11059,True
2,11060,True
2,11061,True
2,11063,True
2,11064,True
2,11065,True
2,11066,True
2,11068,True
2,11069,True
2,11070,True
2,11071,True
2,11072,True
2,11073,True
2,11074,True
2,11075,True
2,11076,True
2,11077,True
2,11078,True
2,11079,True
2,11080,True
2,11081,True
2,11082,True
2,11083,True
2,11084,True
2,11085,True
2,11086,True
2,11087,True
2,11089,True
2,11090,True
2,11091,True
2,11092,True
2,11093,True
2,11094,True
2,11095,True
2,11096,True
2,11097,True
2,11098,True
2,11099,True
2,11100,True
2,11101,True
2,11103,True
2,11104,True
2,11105,True
2,11106,True
2,11107,True
2,11108,True
2,11109,True
2,11110,True
2,11111,True
2,11112,True
2,11113,True
2,11114,True
2,11115,True
2,11116,True
2,11117,True
2,11118,True
2,11119,True
2,11120,True
2,11121,True
2,11122,True
2,11123,True
2,11124,True
2,11125,True
2,11126,True
2,11127,True
2,11128,True
2,11129,True
2,11130,True
2,11131,True
2,11132,True
2,11133,True
2,11135,True
2,11137,True
2,11138,True
2,11139,True
2,11140,True
2,11141,True
2,11142,True
2,11143,True
2,11145,True
2,11146,True
2,11147,True
2,11148,True
2,11149,True
2,11150,True
2,11151,True
2,11152,True
2,11153,True
2,11154,True
2,11155,True
2,11156,True
2,11157,True
2,11158,True
2,11159,True
2,11160,True
2,11161,True
2,11163,True
2,11164,True
2,11166,True
2,11167,True
2,11168,True
2,11169,True
2,11170,True
2,11172,True
2,11173,True
2,11174,True
2,11175,True
2,11176,True
2,11177,True
2,11178,True
2,11179,True
2,11180,True
2,11181,True
2,11182,True
2,11183,True
2,11184,True
2,11185,True
2,11186,True
2,11187,True
2,11188,True
2,11189,True
2,11190,True
2,11191,True
2,11192,True
2,11193,True
2,11194,True
2,11195,True
2,11196,True
2,11197,True
2,11198,True
2,11199,True
2,11200,True
2,11201,True
2,11202,True
2,11203,True
2,11204,True
2,11205,True
2,11206,True
2,11207,True
2,11208,True
2,11209,True
2,11210,True
2,11211,True
2,11212,True
2,11213,True
2,11214,True
2,11215,True
2,11217,True
2,11218,True
2,11219,True
2,11220,True
2,11221,True
2,11222,True
2,11223,True
2,11224,True
2,11225,True
2,11226,True
2,11227,True
2,11228,True
2,11229,True
2,11230,True
2,11231,True
2,11233,True
2,11234,True
2,11235,True
2,11602,True
2,11603,True
2,11604,True
2,11605,True
2,11606,True
2,11607,True
2,11608,True
2,11609,True
2,11610,True
2,11611,True
2,11612,True
2,11613,True
2,11614,True
2,11615,True
2,11616,True
2,11617,True
2,11619,True
2,11620,True
2,11621,True
2,11622,True
2,11623,True
2,11624,True
2,11625,True
2,11626,True
2,11627,True
2,11628,True
2,11629,True
2,11630,True
2,11633,True
2,11634,True
2,11635,True
2,11636,True
2,11637,True
2,11638,True
2,11639,True
2,11640,True
2,11641,True
2,11642,True
2,11643,True
2,11644,True
2,11645,True
2,11646,True
2,11647,True
2,11648,True
2,11649,True
2,11650,True
2,11651,True
2,11652,True
2,11653,True
2,11654,True
2,11655,True
2,11656,True
2,11657,True
2,11658,True
2,11659,True
2,11660,True
2,11661,True
2,11662,True
2,11663,True
2,11664,True
2,11665,True
2,11666,True
2,11667,True
2,11668,True
2,11669,True
2,11670,True
2,11671,True
2,11672,True
2,11673,True
2,11674,True
2,11675,True
2,11676,True
2,11677,True
2,11678,True
2,11679,True
2,11680,True
2,11681,True
2,11682,True
2,11683,True
2,11684,True
2,11685,True
2,11686,True
2,11687,True
2,11688,True
2,11689,True
2,11691,True
2,11692,True
2,11693,True
2,11694,True
2,11695,True
2,11696,True
2,11697,True
2,11698,True
2,11699,True
2,11700,True
2,11701,True
2,11702,True
2,11703,True
2,11704,True
2,11705,True
2,11706,True
2,11707,True
2,11708,True
2,11709,True
2,11710,True
2,11711,True
2,11712,True
2,11713,True
2,11715,True
2,11716,True
2,11717,True
2,11718,True
2,11719,True
2,11720,True
2,11721,True
2,11722,True
2,11723,True
2,11724,True
2,11725,True
2,11726,True
2,11727,True
2,11728,True
2,11729,True
2,11730,True
2,11731,True
2,11732,True
2,11734,True
2,11735,True
2,11736,True
2,11236,True
2,11237,True
2,11238,True
2,11239,True
2,11240,True
2,11241,True
2,11242,True
2,11243,True
2,11244,True
2,11245,True
2,11246,True
2,11247,True
2,11248,True
2,11249,True
2,11250,True
2,11251,True
2,11252,True
2,11253,True
2,11254,True
2,11255,True
2,11256,True
2,11257,True
2,11258,True
2,11259,True
2,11260,True
2,11261,True
2,11262,True
2,11263,True
2,11264,True
2,11265,True
2,11266,True
2,11267,True
2,11268,True
2,11269,True
2,11270,True
2,11271,True
2,11272,True
2,11273,True
2,11274,True
2,11275,True
2,11276,True
2,11277,True
2,11278,True
2,11279,True
2,11280,True
2,11281,True
2,11282,True
2,11283,True
2,11284,True
2,11285,True
2,11286,True
2,11287,True
2,11288,True
2,11289,True
2,11290,True
2,11291,True
2,11292,True
2,11293,True
2,11294,True
2,11295,True
2,11296,True
2,11297,True
2,11298,True
2,11299,True
2,11300,True
2,11301,True
2,11302,True
2,11303,True
2,11304,True
2,11305,True
2,11306,True
2,11307,True
2,11308,True
2,11309,True
2,11310,True
2,11311,True
2,11312,True
2,11313,True
2,11314,True
2,11315,True
2,11316,True
2,11317,True
2,11319,True
2,11321,True
2,11322,True
2,11323,True
2,11324,True
2,11325,True
2,11326,True
2,11327,True
2,11328,True
2,11329,True
2,11330,True
2,11331,True
2,11332,True
2,11333,True
2,11334,True
2,11335,True
2,11336,True
2,11337,True
2,11338,True
2,11340,True
2,11341,True
2,11342,True
2,11343,True
2,11344,True
2,11345,True
2,11346,True
2,11347,True
2,11348,True
2,11349,True
2,11350,True
2,11351,True
2,11352,True
2,11353,True
2,11354,True
2,11355,True
2,11356,True
2,11357,True
2,11358,True
2,11359,True
2,11360,True
2,11361,True
2,11362,True
2,11363,True
2,11364,True
2,11365,True
2,11366,True
2,11367,True
2,11368,True
2,11369,True
2,11370,True
2,11371,True
2,11372,True
2,11373,True
2,11374,True
2,11375,True
2,11376,True
2,11377,True
2,11378,True
2,11379,True
2,11380,True
2,11381,True
2,11382,True
2,11383,True
2,11385,True
2,11387,True
2,11388,True
2,11389,True
2,11390,True
2,11391,True
2,11392,True
2,11393,True
2,11394,True
2,11395,True
2,11396,True
2,11397,True
2,11398,True
2,11399,True
2,11400,True
2,11401,True
2,11402,True
2,11403,True
2,11404,True
2,11405,True
2,11406,True
2,11407,True
2,11408,True
2,11409,True
2,11410,True
2,11411,True
2,11412,True
2,11413,True
2,11414,True
2,11415,True
2,11416,True
2,11417,True
2,11419,True
2,11420,True
2,11421,True
2,11422,True
2,11423,True
2,11424,True
2,11425,True
2,11426,True
2,11427,True
2,11428,True
2,11430,True
2,11431,True
2,11432,True
2,11433,True
2,11434,True
2,11435,True
2,11436,True
2,11437,True
2,11438,True
2,11439,True
2,11440,True
2,11441,True
2,11442,True
2,11443,True
2,11444,True
2,11445,True
2,11446,True
2,11447,True
2,11448,True
2,11449,True
2,11450,True
2,11451,True
2,11452,True
2,11453,True
2,11456,True
2,11457,True
2,11458,True
2,11459,True
2,11460,True
2,11461,True
2,11462,True
2,11463,True
2,11464,True
2,11466,True
2,11467,True
2,11468,True
2,11469,True
2,11470,True
2,11471,True
2,11472,True
2,11473,True
2,11474,True
2,11475,True
2,11476,True
2,11477,True
2,11478,True
2,11479,True
2,11480,True
2,11481,True
2,11482,True
2,11483,True
2,11484,True
2,11485,True
2,11486,True
2,11487,True
2,11488,True
2,11489,True
2,11490,True
2,11491,True
2,11492,True
2,11493,True
2,11494,True
2,11495,True
2,11496,True
2,11498,True
2,11499,True
2,11500,True
2,11501,True
2,11502,True
2,11503,True
2,11506,True
2,11507,True
2,11508,True
2,11509,True
2,11510,True
2,11511,True
2,11513,True
2,11514,True
2,11515,True
2,11516,True
2,11517,True
2,11518,True
2,11519,True
2,11520,True
2,11522,True
2,11523,True
2,11524,True
2,11525,True
2,11526,True
2,11527,True
2,11528,True
2,11529,True
2,11530,True
2,11531,True
2,11532,True
2,11533,True
2,11534,True
2,11535,True
2,11536,True
2,11538,True
2,11539,True
2,11540,True
2,11541,True
2,11542,True
2,11543,True
2,11544,True
2,11545,True
2,11547,True
2,11548,True
2,11549,True
2,11550,True
2,11552,True
2,11553,True
2,11554,True
2,11555,True
2,11556,True
2,11557,True
2,11558,True
2,11559,True
2,11560,True
2,11561,True
2,11562,True
2,11563,True
2,11564,True
2,11565,True
2,11566,True
2,11567,True
2,11568,True
2,11569,True
2,11571,True
2,11572,True
2,11573,True
2,11574,True
2,11576,True
2,11577,True
2,11578,True
2,11579,True
2,11580,True
2,11581,True
2,11584,True
2,11585,True
2,11586,True
2,11587,True
2,11588,True
2,11589,True
2,11590,True
2,11591,True
2,11592,True
2,11593,True
2,11594,True
2,11595,True
2,11596,True
2,11597,True
2,11598,True
2,11599,True
2,11600,True
2,11601,True
2,11737,True
2,11738,True
2,11739,True
2,11740,True
2,11741,True
2,11742,True
2,11743,True
2,11745,True
2,11746,True
2,11747,True
2,11748,True
2,11749,True
2,11750,True
2,11751,True
2,11752,True
2,11753,True
2,11754,True
2,11756,True
2,11757,True
2,11758,True
2,11759,True
2,11760,True
2,11761,True
2,11762,True
2,11763,True
2,11764,True
2,11765,True
2,11766,True
2,11767,True
2,11768,True
2,11769,True
2,11770,True
2,11771,True
2,11773,True
2,11775,True
2,11776,True
2,11777,True
2,11778,True
2,11779,True
2,11780,True
2,11781,True
2,11782,True
2,11783,True
2,11784,True
2,11785,True
2,11786,True
2,11787,True
2,11788,True
2,11789,True
2,11790,True
2,11792,True
2,11793,True
2,11794,True
2,11795,True
2,11796,True
2,11797,True
2,11798,True
2,11799,True
2,11800,True
2,11801,True
2,11802,True
2,11803,True
2,11804,True
2,11806,True
2,11807,True
2,11808,True
2,11809,True
2,11810,True
2,11811,True
2,11812,True
2,11813,True
2,11814,True
2,11815,True
2,11816,True
2,11817,True
2,11818,True
2,11819,True
2,11820,True
2,11821,True
2,11822,True
2,11824,True
2,11826,True
2,11825,True
2,11836,True
2,11837,True
2,11838,True
2,11840,True
2,11841,True
2,11842,True
2,11843,True
2,11844,True
2,11845,True
2,11846,True
2,11847,True
2,11848,True
2,11849,True
2,11850,True
2,11851,True
2,11852,True
2,11853,True
2,11854,True
2,11855,True
2,11856,True
2,11857,True
2,11858,True
2,11859,True
2,11860,True
2,11861,True
2,11862,True
2,11863,True
2,11864,True
2,11865,True
2,11867,True
2,11868,True
2,11869,True
2,11870,True
2,11871,True
2,11872,True
2,11873,True
2,11875,True
2,11876,True
2,11878,True
2,11881,True
2,11882,True
2,11883,True
2,11884,True
2,11886,True
2,11887,True
2,11888,True
2,11889,True
2,11890,True
2,11891,True
2,11892,True
2,11893,True
2,11895,True
2,11896,True
2,11897,True
2,11898,True
2,11899,True
2,11900,True
2,11901,True
2,11902,True
2,11903,True
2,11904,True
2,11905,True
2,11906,True
2,11907,True
2,11908,True
2,11909,True
2,11910,True
2,11911,True
2,11913,True
2,11914,True
2,11915,True
2,11916,True
2,11917,True
2,11918,True
2,11919,True
2,11920,True
2,11921,True
2,11922,True
2,11923,True
2,11924,True
2,11925,True
2,11926,True
2,11927,True
2,11928,True
2,11929,True
2,11930,True
2,11931,True
2,11933,True
2,11934,True
2,11935,True
2,11937,True
2,11938,True
2,11939,True
2,11940,True
2,11941,True
2,11942,True
2,11943,True
2,11944,True
2,11945,True
2,11946,True
2,11947,True
2,11948,True
2,11949,True
2,11950,True
2,11951,True
2,11952,True
2,11953,True
2,11954,True
2,11955,True
2,11956,True
2,11957,True
2,11958,True
2,11959,True
2,11960,True
2,11961,True
2,11963,True
2,11965,True
2,11966,True
2,11968,True
2,11969,True
2,11970,True
2,11971,True
2,11972,True
2,11973,True
2,11975,True
2,11976,True
2,11977,True
2,11978,True
2,11979,True
2,11981,True
2,11982,True
2,11983,True
2,11984,True
2,11985,True
2,11986,True
2,11987,True
2,11988,True
2,11990,True
2,11993,True
2,11994,True
2,11997,True
2,11999,True
2,12000,True
2,12001,True
2,12002,True
2,12004,True
2,12005,True
2,12006,True
2,12007,True
2,12008,True
2,12009,True
2,12010,True
2,12011,True
2,12012,True
2,12013,True
2,12014,True
2,12015,True
2,12016,True
2,12017,True
2,12018,True
2,12021,True
2,12022,True
2,12023,True
2,12024,True
2,12025,True
2,12026,True
2,12027,True
2,12028,True
2,12029,True
2,12031,True
2,12033,True
2,12034,True
2,12035,True
2,12036,True
2,12037,True
2,12038,True
2,12039,True
2,12040,True
2,12042,True
2,12043,True
2,12045,True
2,12046,True
2,11772,True
2,12047,True
2,12048,True
2,12049,True
6,12051,True
2,12054,True
2,12055,True
2,12056,True
2,12057,True
2,12058,True
2,12060,True
2,12061,True
2,12062,True
2,12063,True
2,12064,True
2,12065,True
2,11144,True
2,11102,True
2,10991,True
2,11964,True
2,12066,True
2,12067,True
2,12068,True
2,12069,True
2,12070,True
2,12071,True
2,12073,True
2,12075,True
2,12077,True
2,12078,True
2,12079,True
2,12080,True
2,12081,True
2,12082,True
2,12083,True
2,10293,True
2,11454,True
2,12085,True
2,10315,True
2,10299,True
2,10311,True
2,12086,True
2,12087,True
2,12088,True
2,12089,True
2,12090,True
2,12091,True
2,12092,True
2,12093,True
2,12094,True
2,12095,True
2,12096,True
2,12097,True
2,12098,True
2,12099,True
2,12100,True
2,12101,True
2,12103,True
2,12104,True
2,10527,True
2,10378,True
2,10382,True
2,10320,True
2,10364,True
2,10328,True
2,10309,True
2,10306,True
2,11755,True
2,10275,True
2,10297,True
2,10321,True
2,10348,True
2,11631,True
2,11384,True
2,10296,True
2,10298,True
2,12105,True
2,12106,True
2,12107,True
2,12108,True
2,12109,True
2,11504,True
2,12110,True
2,10277,True
2,10313,True
2,11537,True
2,10294,True
2,10345,True
2,10342,True
2,12111,True
2,11512,True
2,12112,True
2,12113,True
2,12114,True
2,12115,True
2,12116,True
2,12117,True
2,12118,True
2,12119,True
2,12120,True
2,12121,True
2,12122,True
2,12123,True
2,12124,True
2,12125,True
2,12126,True
2,12127,True
2,12128,True
2,12129,True
2,12130,True
2,12132,True
2,12133,True
2,12134,True
2,12135,True
2,12136,True
2,12137,True
2,12138,True
2,12139,True
2,12140,True
2,12141,True
2,12142,True
2,12143,True
2,12144,True
2,12145,True
2,12146,True
2,12147,True
2,12148,True
2,12149,True
2,12150,True
2,12151,True
2,12152,True
2,12153,True
2,12154,True
2,12155,True
2,12156,True
2,12157,True
2,12158,True
2,12159,True
2,12160,True
2,12161,True
2,12162,True
2,12163,True
2,12164,True
2,12165,True
2,12166,True
2,12167,True
2,12168,True
2,12169,True
2,12170,True
2,12171,True
2,12172,True
2,12173,True
2,12174,True
2,12175,True
2,12176,True
2,12177,True
2,12178,True
2,12179,True
2,12180,True
2,12181,True
2,12182,True
2,12183,True
2,12184,True
2,12185,True
2,12186,True
2,12188,True
2,12189,True
2,12190,True
2,12191,True
2,12192,True
2,12193,True
2,12196,True
2,12198,True
2,12199,True
2,12200,True
2,12201,True
2,12202,True
2,12203,True
2,12204,True
2,12205,True
2,12207,True
2,12208,True
2,12209,True
2,12210,True
2,12211,True
2,12212,True
2,12213,True
2,12214,True
2,12215,True
2,12216,True
2,12217,True
2,12218,True
2,12219,True
2,12220,True
2,12221,True
2,12222,True
2,12223,True
2,12224,True
2,12225,True
2,12226,True
2,12227,True
2,12228,True
2,12229,True
2,12230,True
2,12231,True
2,12232,True
2,12233,True
2,12234,True
2,12235,True
2,12236,True
2,12237,True
2,12239,True
2,12240,True
2,12241,True
2,12242,True
2,12243,True
2,12245,True
2,10360,True
2,10331,True
2,10343,True
2,11505,True
2,10356,True
2,10332,True
2,10363,True
2,10303,True
2,10300,True
2,10752,True
2,12247,True
2,12248,True
2,12249,True
2,12250,True
2,12251,True
2,12252,True
2,12253,True
2,12254,True
2,12255,True
2,12256,True
2,11632,True
2,12257,True
2,12258,True
2,12259,True
2,12260,True
2,12261,True
2,12262,True
2,12263,True
2,12264,True
2,12265,True
2,12266,True
2,12267,True
2,12268,True
2,12269,True
2,12270,True
2,12271,True
2,12272,True
2,12273,True
2,12274,True
2,12275,True
2,12276,True
2,12277,True
2,12278,True
2,12279,True
2,12280,True
2,12281,True
2,12282,True
2,12283,True
2,12284,True
2,12285,True
2,12286,True
2,12287,True
2,12288,True
2,12289,True
2,12290,True
2,12291,True
2,12292,True
2,12293,True
2,12294,True
2,12295,True
2,12296,True
2,12297,True
2,12298,True
2,12299,True
2,12300,True
2,12301,True
2,12302,True
2,12303,True
2,12304,True
2,12305,True
2,12306,True
2,12307,True
2,12308,True
2,12309,True
2,12310,True
2,12311,True
2,12312,True
2,12313,True
2,12314,True
2,12315,True
2,12316,True
2,12317,True
2,12318,True
2,12319,True
2,12320,True
2,12321,True
2,12322,True
2,12323,True
2,12324,True
2,12325,True
2,12326,True
2,12327,True
2,12328,True
2,12329,True
2,12330,True
2,12331,True
2,12334,True
2,12335,True
2,12336,True
2,12337,True
2,12338,True
2,12339,True
2,12340,True
2,12341,True
2,12342,True
2,12343,True
2,12344,True
2,12345,True
2,12346,True
2,12347,True
2,12348,True
2,12349,True
2,12350,True
2,12351,True
2,12352,True
2,12353,True
2,12354,True
2,12355,True
2,12356,True
2,12357,True
2,12358,True
2,12051,True
15,12051,True
2,12359,True
2,12360,True
2,12361,True
2,12362,True
2,12363,True
2,12364,True
2,12365,True
2,12366,True
2,12367,True
2,12368,True
2,12369,True
2,12370,True
2,12371,True
2,12372,True
2,12373,True
2,12374,True
2,12375,True
2,12376,True
2,12377,True
2,12378,True
2,12379,True
2,12380,True
2,12381,True
2,12382,True
2,12383,True
2,12384,True
2,12385,True
2,12386,True
2,12387,True
2,12388,True
2,12389,True
2,10671,True
2,12392,True
2,12393,True
2,12394,True
2,12395,True
2,12396,True
2,12397,True
2,10286,True
2,12398,True
2,10609,True
2,11429,True
2,12399,True
2,12400,True
2,12401,True
2,12402,True
2,12403,True
2,12404,True
2,12405,True
2,12406,True
2,10666,True
