2,164,36
3,185,116
4,186,6
5,188,13
6,189,12
7,190,11
8,191,1
9,192,4
10,195,44
11,199,52
12,201,69
13,203,99
14,204,6
15,206,122
16,207,139
17,208,155
18,209,156
19,210,165
20,212,37
21,213,38
22,214,58
23,216,65
24,217,124
25,218,149
26,219,60
27,220,138
28,225,45
29,226,97
30,227,100
31,227,100
32,228,15
33,229,154
34,230,15
35,230,15
36,231,2
37,232,35
38,233,163
39,234,100
40,235,87
41,236,17
42,237,67
43,238,106
44,240,107
45,240,107
46,241,108
47,241,108
48,243,41
49,244,114
50,244,20
51,246,33
52,247,154
53,247,154
54,248,153
55,249,18
56,250,162
57,251,19
58,252,26
59,253,108
60,254,17
61,259,86
62,260,85
63,261,42
64,262,53
65,262,55
66,263,126
67,264,84
68,266,94
69,267,169
70,268,96
71,269,112
72,270,115
73,272,172
74,273,3
75,274,68
76,275,22
77,276,185
78,277,167
79,278,54
80,279,23
81,282,75
82,283,25
83,284,103
84,284,103
85,285,25
86,285,25
87,286,103
88,287,171
89,288,173
90,289,102
91,289,102
92,290,5
93,292,121
94,293,129
95,294,70
96,295,70
97,296,7
98,297,29
99,298,49
100,299,29
101,300,30
102,301,32
103,302,174
104,303,46
105,304,40
106,304,39
107,305,57
108,306,62
109,307,63
110,308,76
111,309,83
112,310,88
113,311,119
114,312,34
115,313,104
116,314,130
117,316,74
118,317,101
119,318,137
120,318,136
121,319,14
122,320,135
123,321,137
124,321,136
125,322,142
126,323,140
127,324,150
128,325,147
129,326,157
130,327,27
131,328,158
132,329,141
133,330,144
134,332,183
135,333,184
136,335,43
137,336,76
138,337,63
139,338,120
140,339,148
141,340,157
142,342,150
143,343,152
144,344,168
145,344,128
146,345,182
147,346,166
148,347,29
149,348,32
150,348,32
151,349,104
